logCounter,timeStamp,sensor1,sensor2,sensor3,sensor4,sensor1,sensor2,sensor3,sensor3,temp
0,28-7-2014 13:54:52,30.4,29.8,28.4,28.4,283,278,265,264,29.3
1,28-7-2014 13:54:57,32.4,31.6,29.2,29.1,302,294,271,271,30.1
2,28-7-2014 13:55:2,33.7,32.9,29.9,30,314,307,277,278,32.4
3,28-7-2014 13:55:7,34.7,33.8,31.1,30.8,323,315,290,287,34.2
4,28-7-2014 13:55:12,36.4,35.6,32.4,32,339,332,301,298,34.9
5,28-7-2014 13:55:17,37.7,37,33.7,33.1,352,344,314,308,36.3
6,28-7-2014 13:55:22,39.2,38.5,35.1,34.3,366,359,326,321,38.3
7,28-7-2014 13:55:27,40.8,39.9,36.5,35.5,380,373,341,331,39.7
8,28-7-2014 13:55:31,42.1,41.1,37.9,36.8,392,384,354,343,41.1
9,28-7-2014 13:55:36,43.7,42.7,39.3,38.1,407,398,365,356,42.5
10,28-7-2014 13:55:41,45.1,44.1,40.5,39.6,420,411,376,368,44
11,28-7-2014 13:55:46,46.4,45.3,42.1,40.9,432,422,392,381,45.6
12,28-7-2014 13:55:51,47.9,46.8,43.5,42.3,446,436,406,394,46.8
13,28-7-2014 13:55:56,49.1,48.1,44.6,43.7,457,448,416,408,48.3
14,28-7-2014 13:56:1,50.7,49.8,45.8,45.3,472,464,426,422,49.6
15,28-7-2014 13:56:6,52.2,51.1,47.2,46.8,486,477,439,435,50.1
16,28-7-2014 13:56:11,53.3,52.3,48.6,48.2,496,487,453,449,52.5
17,28-7-2014 13:56:16,54.7,53.8,49.9,49.6,510,501,465,462,53.6
18,28-7-2014 13:56:21,56.3,55.4,51.2,50.9,525,516,477,474,55
19,28-7-2014 13:56:26,57.8,56.7,52.7,52.2,539,529,491,487,56.4
20,28-7-2014 13:56:31,59.2,58.3,54.2,53.6,551,543,505,500,57.9
21,28-7-2014 13:56:36,60.6,59.8,55.7,55,565,558,519,513,59.5
22,28-7-2014 13:56:41,62.1,61.3,57.1,56.4,578,571,532,525,60.8
23,28-7-2014 13:56:46,63.5,62.8,58.6,57.7,592,585,545,535,62.2
24,28-7-2014 13:56:50,65.1,64.1,59.9,59.1,607,598,557,550,63.7
25,28-7-2014 13:56:55,66.5,65.4,61.1,60.4,619,610,569,562,64.9
26,28-7-2014 13:57:0,67.8,67,62.4,61.7,632,623,582,575,66.5
27,28-7-2014 13:57:5,68.9,68,63.7,63,642,633,594,587,68
28,28-7-2014 13:57:10,70.3,69.4,65.1,64.3,655,646,606,599,69.4
29,28-7-2014 13:57:15,71.8,70.6,66.5,65.6,668,658,618,612,70.7
30,28-7-2014 13:57:20,73.1,72.2,67.7,66.9,681,672,631,623,71.9
31,28-7-2014 13:57:25,74.3,73.5,69.1,68.2,693,684,644,635,72.8
32,28-7-2014 13:57:30,75.5,74.7,70.3,69.5,704,695,654,651,75
33,28-7-2014 13:57:35,77,75.9,71.6,70.8,717,707,667,659,75.1
34,28-7-2014 13:57:40,78.3,77.4,72.9,72,730,722,679,670,77.5
35,28-7-2014 13:57:45,79.7,78.6,74.2,73.3,742,731,691,682,78.6
36,28-7-2014 13:57:50,80.8,79.8,75.4,74.5,753,743,702,695,80.2
37,28-7-2014 13:57:55,82.3,81.3,76.7,75.7,767,757,715,707,81.7
38,28-7-2014 13:58:0,83.5,82.4,78.1,77.1,778,767,727,716,83.1
39,28-7-2014 13:58:4,84.8,83.8,79.4,78.4,790,780,740,730,84.3
40,28-7-2014 13:58:9,86.3,85.2,80.7,79.8,803,793,751,744,85.6
41,28-7-2014 13:58:14,87.6,86.6,82.1,81.2,816,807,765,756,86.5
42,28-7-2014 13:58:19,88.9,88,83.7,82.6,828,820,778,769,87.8
